*** Life<ConwayCell> 14x7 ***

Generation = 0, Population = 21.
.......
*....*.
.......
...*...
.....*.
.....**
****...
*..***.
.......
.**..*.
......*
*..*...
.......
.....*.

Generation = 20, Population = 0.
.......
.......
.......
.......
.......
.......
.......
.......
.......
.......
.......
.......
.......
.......

*** Life<ConwayCell> 7x7 ***

Generation = 0, Population = 10.
.***...
.....**
.*..*..
..*....
.......
*.*....
.......

Generation = 5, Population = 6.
.......
...***.
...***.
.......
.......
.......
.......

Generation = 10, Population = 6.
....*..
...*.*.
...*.*.
....*..
.......
.......
.......

*** Life<ConwayCell> 3x8 ***

Generation = 0, Population = 6.
........
..*..*..
.****...

Generation = 64, Population = 0.
........
........
........

*** Life<ConwayCell> 14x6 ***

Generation = 0, Population = 22.
....**
..*...
...*..
..*...
.....*
*..*.*
.....*
*.....
.*....
...*.*
.*.*..
.*.**.
...*..
*...*.

Generation = 53, Population = 8.
......
......
......
......
....**
....**
......
......
......
......
......
......
....**
....**

*** Life<ConwayCell> 7x10 ***

Generation = 0, Population = 15.
..........
.*.....*..
..*.*....*
.......*..
..*......*
.**....*..
*...*...**

Generation = 71, Population = 0.
..........
..........
..........
..........
..........
..........
..........

*** Life<ConwayCell> 3x8 ***

Generation = 0, Population = 11.
.*...*.*
***..**.
..***...

Generation = 1, Population = 11.
***..*..
*....**.
..****..

Generation = 2, Population = 10.
**...**.
*.....*.
...****.

Generation = 3, Population = 10.
**...**.
**.....*
....***.

Generation = 4, Population = 9.
**....*.
**..*..*
.....**.

Generation = 5, Population = 7.
**......
**.....*
.....**.

Generation = 6, Population = 6.
**......
**....*.
......*.

Generation = 7, Population = 4.
**......
**......
........

Generation = 8, Population = 4.
**......
**......
........

Generation = 9, Population = 4.
**......
**......
........

Generation = 10, Population = 4.
**......
**......
........

Generation = 11, Population = 4.
**......
**......
........

Generation = 12, Population = 4.
**......
**......
........

Generation = 13, Population = 4.
**......
**......
........

Generation = 14, Population = 4.
**......
**......
........

Generation = 15, Population = 4.
**......
**......
........

Generation = 16, Population = 4.
**......
**......
........

Generation = 17, Population = 4.
**......
**......
........

Generation = 18, Population = 4.
**......
**......
........

Generation = 19, Population = 4.
**......
**......
........

Generation = 20, Population = 4.
**......
**......
........

Generation = 21, Population = 4.
**......
**......
........

Generation = 22, Population = 4.
**......
**......
........

Generation = 23, Population = 4.
**......
**......
........

Generation = 24, Population = 4.
**......
**......
........

Generation = 25, Population = 4.
**......
**......
........

Generation = 26, Population = 4.
**......
**......
........

Generation = 27, Population = 4.
**......
**......
........

Generation = 28, Population = 4.
**......
**......
........

Generation = 29, Population = 4.
**......
**......
........

Generation = 30, Population = 4.
**......
**......
........

Generation = 31, Population = 4.
**......
**......
........

*** Life<ConwayCell> 4x8 ***

Generation = 0, Population = 13.
*..*.**.
..*...**
...*....
***..**.

Generation = 2, Population = 8.
...*...*
..**....
.*...*.*
..*.....

*** Life<ConwayCell> 4x6 ***

Generation = 0, Population = 5.
.*....
.*....
**....
.....*

Generation = 4, Population = 6.
.*....
*.*...
*.*...
.*....

Generation = 8, Population = 6.
.*....
*.*...
*.*...
.*....

*** Life<ConwayCell> 20x3 ***

Generation = 0, Population = 19.
***
.**
*..
..*
*..
..*
*..
*..
**.
...
.*.
...
...
*..
*..
...
*..
...
*..
..*

Generation = 91, Population = 5.
...
...
...
...
...
...
.*.
*.*
**.
...
...
...
...
...
...
...
...
...
...
...

*** Life<ConwayCell> 1x17 ***

Generation = 0, Population = 7.
.*.*..*.*.**...*.

Generation = 19, Population = 0.
.................

*** Life<ConwayCell> 8x10 ***

Generation = 0, Population = 21.
.*....*...
.*.....*..
...******.
..........
...*.....*
......**..
*.*.*..*..
*......*.*

Generation = 23, Population = 4.
..........
.......**.
.......**.
..........
..........
..........
..........
..........

*** Life<ConwayCell> 1x5 ***

Generation = 0, Population = 2.
**...

Generation = 18, Population = 0.
.....

*** Life<ConwayCell> 4x11 ***

Generation = 0, Population = 15.
*..*.*....*
*.*...*.***
*.......*..
*..**......

Generation = 35, Population = 0.
...........
...........
...........
...........

*** Life<ConwayCell> 16x5 ***

Generation = 0, Population = 20.
.....
.**..
.....
.....
...*.
**..*
....*
*...*
.....
**.**
.*..*
.*...
..*..
....*
.*.*.
.....

Generation = 13, Population = 0.
.....
.....
.....
.....
.....
.....
.....
.....
.....
.....
.....
.....
.....
.....
.....
.....

Generation = 26, Population = 0.
.....
.....
.....
.....
.....
.....
.....
.....
.....
.....
.....
.....
.....
.....
.....
.....

*** Life<ConwayCell> 9x20 ***

Generation = 0, Population = 24.
*.......*....*......
.....*........*.....
..............*.....
.*.**.*.............
.*.............*....
*........**....*....
..**......*...*.....
........*....*......
..*.......*.........

Generation = 25, Population = 19.
....................
....*...............
....**..............
....*.*.............
......**.*.*........
.....**.*..*..**....
.....*...*....**....
....................
....................

*** Life<ConwayCell> 5x20 ***

Generation = 0, Population = 21.
.*..*...*.....*.*...
....*..*..*...*.*...
*.......**....*.....
.....*...*.........*
..*.........**..*...

Generation = 32, Population = 0.
....................
....................
....................
....................
....................

Generation = 64, Population = 0.
....................
....................
....................
....................
....................

Generation = 96, Population = 0.
....................
....................
....................
....................
....................

*** Life<ConwayCell> 17x5 ***

Generation = 0, Population = 22.
...*.
....*
.*.*.
*...*
.....
....*
.....
.*..*
.....
...*.
.**.*
..*..
*..**
.**..
*..*.
.....
.*...

Generation = 1, Population = 18.
.....
..***
...**
.....
.....
.....
.....
.....
.....
..**.
.**..
..*.*
...*.
***.*
.**..
.....
.....

Generation = 2, Population = 16.
...*.
..*.*
..*.*
.....
.....
.....
.....
.....
.....
.***.
.*...
.**..
....*
*....
*.**.
.....
.....

Generation = 3, Population = 14.
...*.
..*.*
.....
.....
.....
.....
.....
.....
..*..
.**..
*..*.
.**..
.*...
.*.*.
.*...
.....
.....

Generation = 4, Population = 17.
...*.
...*.
.....
.....
.....
.....
.....
.....
.**..
.***.
*..*.
***..
**...
**...
..*..
.....
.....

Generation = 5, Population = 10.
.....
.....
.....
.....
.....
.....
.....
.....
.*.*.
*..*.
*..*.
..*..
.....
*.*..
.*...
.....
.....

Generation = 6, Population = 11.
.....
.....
.....
.....
.....
.....
.....
.....
..*..
**.**
.***.
.....
.*...
.*...
.*...
.....
.....

Generation = 7, Population = 13.
.....
.....
.....
.....
.....
.....
.....
.....
.***.
*...*
**.**
.*...
.....
***..
.....
.....
.....

Generation = 8, Population = 18.
.....
.....
.....
.....
.....
.....
.....
..*..
.***.
*...*
*****
***..
*.*..
.*...
.*...
.....
.....

Generation = 9, Population = 14.
.....
.....
.....
.....
.....
.....
.....
.***.
.***.
*...*
....*
.....
*.*..
***..
.....
.....
.....

Generation = 10, Population = 13.
.....
.....
.....
.....
.....
.....
..*..
.*.*.
*...*
.**.*
.....
.....
*.*..
*.*..
.*...
.....
.....

Generation = 11, Population = 11.
.....
.....
.....
.....
.....
.....
..*..
.***.
*...*
.*.*.
.....
.....
.....
*.*..
.*...
.....
.....

Generation = 12, Population = 10.
.....
.....
.....
.....
.....
.....
.***.
.***.
*...*
.....
.....
.....
.....
.*...
.*...
.....
.....

Generation = 13, Population = 8.
.....
.....
.....
.....
.....
..*..
.*.*.
*...*
.***.
.....
.....
.....
.....
.....
.....
.....
.....

Generation = 14, Population = 10.
.....
.....
.....
.....
.....
..*..
.***.
*...*
.***.
..*..
.....
.....
.....
.....
.....
.....
.....

Generation = 15, Population = 14.
.....
.....
.....
.....
.....
.***.
.***.
*...*
.***.
.***.
.....
.....
.....
.....
.....
.....
.....

Generation = 16, Population = 12.
.....
.....
.....
.....
..*..
.*.*.
*...*
*...*
*...*
.*.*.
..*..
.....
.....
.....
.....
.....
.....

Generation = 17, Population = 20.
.....
.....
.....
.....
..*..
.***.
**.**
**.**
**.**
.***.
..*..
.....
.....
.....
.....
.....
.....

Generation = 18, Population = 10.
.....
.....
.....
.....
.***.
*...*
.....
.....
.....
*...*
.***.
.....
.....
.....
.....
.....
.....

Generation = 19, Population = 14.
.....
.....
.....
..*..
.***.
.***.
.....
.....
.....
.***.
.***.
..*..
.....
.....
.....
.....
.....

Generation = 20, Population = 12.
.....
.....
.....
.***.
.....
.*.*.
..*..
.....
..*..
.*.*.
.....
.***.
.....
.....
.....
.....
.....

Generation = 21, Population = 12.
.....
.....
..*..
..*..
.*.*.
..*..
..*..
.....
..*..
..*..
.*.*.
..*..
..*..
.....
.....
.....
.....

Generation = 22, Population = 16.
.....
.....
.....
.***.
.*.*.
.***.
.....
.....
.....
.***.
.*.*.
.***.
.....
.....
.....
.....
.....

Generation = 23, Population = 16.
.....
.....
..*..
.*.*.
*...*
.*.*.
..*..
.....
..*..
.*.*.
*...*
.*.*.
..*..
.....
.....
.....
.....

Generation = 24, Population = 24.
.....
.....
..*..
.***.
**.**
.***.
..*..
.....
..*..
.***.
**.**
.***.
..*..
.....
.....
.....
.....

Generation = 25, Population = 24.
.....
.....
.***.
*...*
*...*
*...*
.***.
.....
.***.
*...*
*...*
*...*
.***.
.....
.....
.....
.....

Generation = 26, Population = 34.
.....
..*..
.***.
*.*.*
**.**
*.*.*
.***.
.....
.***.
*.*.*
**.**
*.*.*
.***.
..*..
.....
.....
.....

Generation = 27, Population = 24.
.....
.***.
.....
*...*
*...*
*...*
.***.
.....
.***.
*...*
*...*
*...*
.....
.***.
.....
.....
.....

Generation = 28, Population = 30.
..*..
..*..
.***.
.....
**.**
*.*.*
.***.
.....
.***.
*.*.*
**.**
.....
.***.
..*..
..*..
.....
.....

Generation = 29, Population = 30.
.....
.....
.***.
*...*
*****
*...*
.***.
.....
.***.
*...*
*****
*...*
.***.
.....
.....
.....
.....

Generation = 30, Population = 28.
.....
..*..
.***.
*...*
*.*.*
*...*
.***.
.....
.***.
*...*
*.*.*
*...*
.***.
..*..
.....
.....
.....

Generation = 31, Population = 30.
.....
.***.
.***.
*...*
*...*
*...*
.***.
.....
.***.
*...*
*...*
*...*
.***.
.***.
.....
.....
.....

Generation = 32, Population = 36.
..*..
.*.*.
*...*
*.*.*
**.**
*.*.*
.***.
.....
.***.
*.*.*
**.**
*.*.*
*...*
.*.*.
..*..
.....
.....

Generation = 33, Population = 34.
..*..
.***.
*.*.*
*.*.*
*...*
*...*
.***.
.....
.***.
*...*
*...*
*.*.*
*.*.*
.***.
..*..
.....
.....

Generation = 34, Population = 30.
.***.
.....
*...*
*...*
*...*
*.*.*
.***.
.....
.***.
*.*.*
*...*
*...*
*...*
.....
.***.
.....
.....

Generation = 35, Population = 33.
..*..
.***.
.....
**.**
*...*
*.*.*
.***.
.....
.***.
*.*.*
*...*
**.**
.....
.***.
..*..
..*..
.....

Generation = 36, Population = 39.
.***.
.***.
*...*
**.**
*.*.*
*.*.*
.***.
.....
.***.
*.*.*
*.*.*
**.**
*...*
.***.
.....
.....
.....

Generation = 37, Population = 34.
.*.*.
*...*
*...*
*.*.*
*.*.*
*...*
.***.
.....
.***.
*...*
*.*.*
*.*.*
*...*
.***.
..*..
.....
.....

Generation = 38, Population = 32.
.....
**.**
*...*
*...*
*...*
*...*
.***.
.....
.***.
*...*
*...*
*...*
*...*
.***.
.***.
.....
.....

Generation = 39, Population = 42.
.....
**.**
*...*
**.**
**.**
*.*.*
.***.
.....
.***.
*.*.*
**.**
**.**
*.*.*
*...*
.*.*.
..*..
.....

Generation = 40, Population = 24.
.....
**.**
.....
.....
.....
*...*
.***.
.....
.***.
*...*
.....
.....
*.*.*
*.*.*
.***.
..*..
.....

Generation = 41, Population = 17.
.....
.....
.....
.....
.....
.***.
.***.
.....
.***.
.***.
.....
.....
.....
*...*
.....
.***.
.....

Generation = 42, Population = 15.
.....
.....
.....
.....
..*..
.*.*.
.*.*.
.....
.*.*.
.*.*.
..*..
.....
.....
.....
.***.
..*..
..*..

Generation = 43, Population = 10.
.....
.....
.....
.....
..*..
.*.*.
.....
.....
.....
.*.*.
..*..
.....
.....
..*..
.***.
.....
.....

Generation = 44, Population = 11.
.....
.....
.....
.....
..*..
..*..
.....
.....
.....
..*..
..*..
.....
.....
.***.
.***.
..*..
.....

Generation = 45, Population = 6.
.....
.....
.....
.....
.....
.....
.....
.....
.....
.....
.....
.....
..*..
.*.*.
.....
.***.
.....

Generation = 46, Population = 6.
.....
.....
.....
.....
.....
.....
.....
.....
.....
.....
.....
.....
..*..
..*..
.*.*.
..*..
..*..

Generation = 47, Population = 8.
.....
.....
.....
.....
.....
.....
.....
.....
.....
.....
.....
.....
.....
.***.
.*.*.
.***.
.....

Generation = 48, Population = 8.
.....
.....
.....
.....
.....
.....
.....
.....
.....
.....
.....
.....
..*..
.*.*.
*...*
.*.*.
..*..

Generation = 49, Population = 12.
.....
.....
.....
.....
.....
.....
.....
.....
.....
.....
.....
.....
..*..
.***.
**.**
.***.
..*..

Generation = 50, Population = 12.
.....
.....
.....
.....
.....
.....
.....
.....
.....
.....
.....
.....
.***.
*...*
*...*
*...*
.***.

Generation = 51, Population = 17.
.....
.....
.....
.....
.....
.....
.....
.....
.....
.....
.....
..*..
.***.
*.*.*
**.**
*.*.*
.***.

Generation = 52, Population = 12.
.....
.....
.....
.....
.....
.....
.....
.....
.....
.....
.....
.***.
.....
*...*
*...*
*...*
.***.

Generation = 53, Population = 15.
.....
.....
.....
.....
.....
.....
.....
.....
.....
.....
..*..
..*..
.***.
.....
**.**
*.*.*
.***.

Generation = 54, Population = 15.
.....
.....
.....
.....
.....
.....
.....
.....
.....
.....
.....
.....
.***.
*...*
*****
*...*
.***.

Generation = 55, Population = 14.
.....
.....
.....
.....
.....
.....
.....
.....
.....
.....
.....
..*..
.***.
*...*
*.*.*
*...*
.***.

Generation = 56, Population = 15.
.....
.....
.....
.....
.....
.....
.....
.....
.....
.....
.....
.***.
.***.
*...*
*...*
*...*
.***.

Generation = 57, Population = 18.
.....
.....
.....
.....
.....
.....
.....
.....
.....
.....
..*..
.*.*.
*...*
*.*.*
**.**
*.*.*
.***.

Generation = 58, Population = 17.
.....
.....
.....
.....
.....
.....
.....
.....
.....
.....
..*..
.***.
*.*.*
*.*.*
*...*
*...*
.***.

Generation = 59, Population = 15.
.....
.....
.....
.....
.....
.....
.....
.....
.....
.....
.***.
.....
*...*
*...*
*...*
*.*.*
.***.

Generation = 60, Population = 17.
.....
.....
.....
.....
.....
.....
.....
.....
.....
..*..
..*..
.***.
.....
**.**
*...*
*.*.*
.***.

Generation = 61, Population = 18.
.....
.....
.....
.....
.....
.....
.....
.....
.....
.....
.....
.***.
*...*
**.**
*.*.*
*.*.*
.***.

Generation = 62, Population = 17.
.....
.....
.....
.....
.....
.....
.....
.....
.....
.....
..*..
.***.
*...*
*.*.*
*.*.*
*...*
.***.

Generation = 63, Population = 17.
.....
.....
.....
.....
.....
.....
.....
.....
.....
.....
.***.
.***.
*...*
*...*
*...*
*...*
.***.

Generation = 64, Population = 22.
.....
.....
.....
.....
.....
.....
.....
.....
.....
..*..
.*.*.
*...*
*.*.*
**.**
**.**
*.*.*
.***.

Generation = 65, Population = 15.
.....
.....
.....
.....
.....
.....
.....
.....
.....
..*..
.***.
*.*.*
*.*.*
.....
.....
*...*
.***.

Generation = 66, Population = 11.
.....
.....
.....
.....
.....
.....
.....
.....
.....
.***.
.....
*...*
.....
.....
.....
.***.
.***.

Generation = 67, Population = 10.
.....
.....
.....
.....
.....
.....
.....
.....
..*..
..*..
.***.
.....
.....
.....
..*..
.*.*.
.*.*.

*** Life<ConwayCell> 6x16 ***

Generation = 0, Population = 21.
.....**..*..**..
......**....*...
.**..*..........
.........*...**.
...**...*...*...
..........*...**

Generation = 44, Population = 7.
.............*..
............*.*.
............*..*
.............**.
................
................

*** Life<ConwayCell> 5x3 ***

Generation = 0, Population = 4.
..*
*..
.*.
...
..*

Generation = 22, Population = 0.
...
...
...
...
...

*** Life<ConwayCell> 11x16 ***

Generation = 0, Population = 25.
...**.....*..*.*
.............*..
*......*...*....
**...*.....*....
.........*......
...*......*.....
..............*.
...*......*.....
....*...*.......
.....*.....*....
......*........*

Generation = 65, Population = 7.
................
............*...
**..........*...
**..........*...
................
................
................
................
................
................
................

*** Life<ConwayCell> 1x8 ***

Generation = 0, Population = 4.
...***.*

Generation = 61, Population = 0.
........

*** Life<ConwayCell> 5x4 ***

Generation = 0, Population = 9.
...*
*..*
*.*.
*...
*.**

Generation = 2, Population = 8.
..*.
.**.
*...
*.*.
.**.

Generation = 4, Population = 12.
.**.
*..*
*.**
*.**
.**.

Generation = 6, Population = 10.
.**.
*.*.
**..
*.*.
.**.

Generation = 8, Population = 13.
.**.
*.**
*.**
*.**
.**.

*** Life<ConwayCell> 19x5 ***

Generation = 0, Population = 22.
.....
*..**
.*...
...**
....*
*.*..
*....
.....
.....
...**
.*...
..*..
.....
....*
..*.*
*....
*....
.*...
.**..

Generation = 5, Population = 8.
.....
.....
.....
..**.
.....
.....
.....
.....
.....
.....
.....
.....
.....
.....
.**..
*..*.
.**..
.....
.....

*** Life<ConwayCell> 1x6 ***

Generation = 0, Population = 2.
*.*...

Generation = 47, Population = 0.
......

Generation = 94, Population = 0.
......

*** Life<ConwayCell> 11x4 ***

Generation = 0, Population = 12.
....
****
***.
...*
...*
....
....
....
*...
*..*
....

Generation = 1, Population = 7.
.**.
*..*
*...
.*.*
....
....
....
....
....
....
....

Generation = 2, Population = 7.
.**.
*.*.
***.
....
....
....
....
....
....
....
....

Generation = 3, Population = 7.
.**.
*..*
*.*.
.*..
....
....
....
....
....
....
....

Generation = 4, Population = 7.
.**.
*..*
*.*.
.*..
....
....
....
....
....
....
....

Generation = 5, Population = 7.
.**.
*..*
*.*.
.*..
....
....
....
....
....
....
....

Generation = 6, Population = 7.
.**.
*..*
*.*.
.*..
....
....
....
....
....
....
....

Generation = 7, Population = 7.
.**.
*..*
*.*.
.*..
....
....
....
....
....
....
....

Generation = 8, Population = 7.
.**.
*..*
*.*.
.*..
....
....
....
....
....
....
....

Generation = 9, Population = 7.
.**.
*..*
*.*.
.*..
....
....
....
....
....
....
....

Generation = 10, Population = 7.
.**.
*..*
*.*.
.*..
....
....
....
....
....
....
....

Generation = 11, Population = 7.
.**.
*..*
*.*.
.*..
....
....
....
....
....
....
....

Generation = 12, Population = 7.
.**.
*..*
*.*.
.*..
....
....
....
....
....
....
....

*** Life<ConwayCell> 19x18 ***

Generation = 0, Population = 24.
*.................
..................
..................
...*.........*....
..*.........*.....
...........*......
.*.............*..
..*..*............
..................
.***..............
.*.............*..
.....*............
..................
............**....
..*....*..........
........*.......*.
.........*.*......
..................
..................

Generation = 44, Population = 0.
..................
..................
..................
..................
..................
..................
..................
..................
..................
..................
..................
..................
..................
..................
..................
..................
..................
..................
..................

*** Life<ConwayCell> 18x9 ***

Generation = 0, Population = 24.
.........
*........
.........
........*
....*...*
...*.....
*........
.........
*.*.*.**.
..**.....
.......*.
*.*......
.........
......*..
*........
.........
......**.
..*.*.**.

Generation = 6, Population = 10.
.........
.........
.........
.........
.........
.........
.........
.**......
*...*....
*...*....
*...*....
.**......
.........
.........
.........
.........
.........
.........

Generation = 12, Population = 9.
.........
.........
.........
.........
.........
.........
.........
.*.*.....
.*.*.....
....*....
.*.*.....
.*.*.....
.........
.........
.........
.........
.........
.........

Generation = 18, Population = 6.
.........
.........
.........
.........
.........
.........
.........
.........
...**....
..*..*...
...**....
.........
.........
.........
.........
.........
.........
.........

Generation = 24, Population = 6.
.........
.........
.........
.........
.........
.........
.........
.........
...**....
..*..*...
...**....
.........
.........
.........
.........
.........
.........
.........

Generation = 30, Population = 6.
.........
.........
.........
.........
.........
.........
.........
.........
...**....
..*..*...
...**....
.........
.........
.........
.........
.........
.........
.........

Generation = 36, Population = 6.
.........
.........
.........
.........
.........
.........
.........
.........
...**....
..*..*...
...**....
.........
.........
.........
.........
.........
.........
.........

Generation = 42, Population = 6.
.........
.........
.........
.........
.........
.........
.........
.........
...**....
..*..*...
...**....
.........
.........
.........
.........
.........
.........
.........

Generation = 48, Population = 6.
.........
.........
.........
.........
.........
.........
.........
.........
...**....
..*..*...
...**....
.........
.........
.........
.........
.........
.........
.........

*** Life<ConwayCell> 2x1 ***

Generation = 0, Population = 1.
.
*

Generation = 41, Population = 0.
.
.
