20

7 9
28
3 8
2 8
4 8
3 8
3 0
4 8
5 8
0 8
5 8
3 0
4 0
2 0
2 0
3 8
2 0
2 0
1 0
0 8
0 8
4 8
5 0
3 8
3 8
1 0
3 0
0 0
1 8
3 0
19 10

9 9
9
3 0
2 0
7 0
0 0
2 8
7 8
7 0
2 8
1 0
84 10

4 7
2
0 0
2 0
83 10

7 5
5
2 0
3 0
1 4
1 4
1 0
59 10

9 7
12
0 2
2 0
7 6
3 6
4 4
6 0
4 4
6 2
7 4
5 4
6 2
0 4
3 10

4 7
4
2 0
1 6
2 0
1 2
87 10

9 9
33
7 8
4 8
5 0
6 8
0 8
1 0
6 8
3 8
6 0
5 8
2 0
4 8
2 8
1 0
7 8
4 8
2 8
2 8
4 0
5 0
5 0
2 8
0 8
1 8
0 8
3 0
1 0
0 0
3 8
5 8
4 0
2 0
2 0
82 10

6 9
18
2 0
1 0
2 8
3 0
2 0
4 0
4 0
3 0
4 8
1 8
3 0
1 0
2 8
3 0
4 8
4 8
2 0
2 8
19 10

5 8
17
1 4
1 1
3 1
2 6
0 5
1 3
3 6
3 0
2 0
0 4
3 3
0 0
0 1
3 7
0 5
0 1
2 5
47 10

9 6
46
3 4
6 1
1 4
7 1
6 1
1 4
5 0
1 4
0 1
7 5
1 4
5 1
5 5
6 0
4 4
2 0
2 0
1 4
6 0
5 5
2 4
3 5
7 5
5 5
6 5
7 5
1 4
0 4
3 4
7 5
2 1
7 5
1 0
1 0
1 4
5 1
4 0
2 1
5 0
3 4
5 0
3 4
6 4
4 1
2 1
0 5
68 10

4 6
7
0 1
0 1
1 1
1 5
0 5
2 1
1 4
17 10

6 6
9
0 4
2 4
3 5
1 5
1 4
3 4
3 4
4 0
0 0
65 10

6 9
22
2 8
1 0
3 0
0 8
2 0
4 0
4 8
0 0
1 8
4 8
4 0
3 0
3 0
4 0
2 0
3 8
4 8
4 0
1 0
3 8
0 0
3 0
57 10

4 8
11
0 1
1 0
0 5
2 2
1 6
1 1
0 2
2 5
0 1
1 6
1 1
15 10

9 4
21
0 3
0 2
1 3
3 2
3 0
7 1
2 0
7 0
1 1
3 1
2 0
6 0
2 2
5 2
1 0
2 1
3 3
4 1
6 3
7 2
7 2
67 10

8 4
12
1 3
1 1
1 2
6 2
4 0
2 0
5 1
5 0
2 0
0 2
3 2
1 0
8 10

9 8
4
3 4
6 6
3 6
3 7
69 10

9 9
73
1 8
4 8
2 8
7 8
1 0
3 8
5 0
2 8
6 8
0 0
4 8
0 0
5 8
6 0
0 0
6 0
4 0
4 8
0 0
6 0
3 8
3 0
6 0
5 8
5 8
7 0
4 0
0 8
2 0
0 8
5 8
4 0
2 8
7 0
5 0
3 8
7 8
0 8
3 0
2 0
2 8
1 8
0 8
1 0
7 8
6 8
0 8
5 8
3 8
4 0
1 8
0 0
5 0
6 0
5 8
0 8
2 0
7 0
2 0
5 8
1 0
5 0
6 0
4 0
6 8
2 0
0 8
0 0
3 8
6 0
7 0
0 8
0 8
71 10

5 5
21
0 0
0 0
3 0
0 4
0 0
0 4
3 0
0 0
3 0
2 4
0 0
0 4
2 4
0 4
0 0
2 4
0 0
2 4
1 0
3 0
2 4
63 10

9 4
13
4 3
3 2
5 3
7 1
4 1
6 0
7 2
3 1
3 0
0 1
7 2
4 2
7 2
98 10
