21

2 5
12
0 0
0 1
1 2
0 4
1 1
0 1
1 3
0 2
0 2
1 0
0 4
1 3
120 3

17 18
35
9 7
3 17
7 10
16 9
1 4
1 1
9 0
6 4
12 1
6 0
11 14
2 5
1 14
1 4
14 12
6 12
4 4
15 5
6 16
7 10
5 3
13 11
1 0
15 17
5 3
7 5
6 1
14 9
0 2
9 3
14 16
10 6
6 6
6 7
14 14
55 17

4 1
19
3 0
0 0
1 0
1 0
3 0
1 0
3 0
1 0
3 0
2 0
1 0
1 0
1 0
0 0
1 0
2 0
1 0
2 0
1 0
179 8

8 2
11
3 0
2 1
3 1
5 1
2 1
2 0
7 0
4 0
0 1
6 0
0 0
128 16

6 16
6
3 11
2 5
4 1
4 3
1 4
4 1
114 20

10 5
8
5 0
4 4
1 0
1 2
0 1
3 0
6 3
5 0
59 11

6 14
15
4 4
0 6
0 0
2 2
4 12
1 10
4 4
0 0
5 5
0 8
3 5
5 5
0 1
3 8
0 8
102 4

14 9
1
1 7
90 12

7 3
25
1 2
5 1
0 0
0 0
3 2
6 1
3 2
0 2
2 0
4 1
5 1
5 0
1 2
3 2
1 2
2 0
1 0
5 1
3 0
3 2
0 0
5 1
6 1
0 1
6 0
141 14

17 5
7
1 1
14 0
10 4
7 1
14 1
7 2
7 0
158 18

8 19
11
2 0
0 14
3 3
7 15
0 18
4 12
2 0
7 11
6 18
5 13
6 7
94 10

13 16
36
12 0
11 8
7 15
9 15
9 15
7 9
9 0
11 8
8 12
8 4
5 11
11 15
3 8
12 9
7 11
8 13
10 12
1 9
1 2
12 15
1 0
2 6
8 0
1 14
6 5
5 4
2 1
4 10
1 14
10 5
4 3
0 14
2 3
0 15
8 15
0 12
112 11

9 10
31
0 2
1 0
3 7
4 8
6 5
0 4
5 0
1 1
1 8
2 4
5 3
0 2
3 3
5 3
6 7
7 0
0 1
2 6
2 6
0 8
0 4
5 1
3 3
0 0
8 3
1 1
2 5
0 3
1 2
7 9
1 3
198 20

8 17
39
4 9
4 2
6 5
5 7
1 7
5 12
4 12
6 7
7 0
7 1
4 12
4 8
6 16
4 2
1 11
7 7
2 15
4 7
0 15
5 13
3 5
3 12
0 12
0 11
0 9
1 1
6 12
6 9
6 12
5 5
5 15
7 12
4 5
1 12
0 13
5 3
3 13
6 7
6 3
101 15

2 12
22
0 9
1 0
0 1
1 5
0 6
1 5
1 10
1 3
0 1
1 8
1 11
0 2
1 3
1 7
1 5
1 4
1 9
1 7
1 7
0 0
0 2
1 10
19 10

19 6
27
6 1
17 3
9 1
16 0
5 0
0 5
0 2
18 3
13 2
1 0
13 5
9 5
15 1
9 3
10 1
9 1
0 3
14 3
7 0
1 4
3 1
14 1
18 3
15 2
7 5
3 4
4 1
133 16

7 12
35
2 3
1 2
1 4
4 9
5 6
1 8
2 7
3 1
0 0
6 8
5 7
1 4
5 11
4 4
3 8
1 11
2 11
1 7
6 4
6 7
2 7
3 1
1 3
2 5
1 10
6 11
4 10
4 11
3 10
6 1
2 5
5 6
4 2
1 9
6 6
132 13

1 6
3
0 2
0 1
0 0
85 11

16 17
29
14 1
15 3
15 11
14 9
5 3
5 10
9 5
0 7
4 14
13 3
11 14
15 14
2 1
9 1
3 6
0 7
3 4
10 14
5 1
0 12
2 15
3 10
5 5
7 0
9 6
3 11
4 7
1 11
10 0
47 15

4 15
20
2 1
1 0
0 5
1 10
2 14
3 9
3 7
3 8
0 7
3 7
1 7
0 9
0 0
0 1
3 12
3 10
2 2
2 10
1 1
2 4
139 2

3 20
23
0 8
0 10
2 6
1 12
1 3
1 1
0 18
0 7
0 7
2 9
0 13
0 1
2 16
2 0
2 1
2 5
1 17
2 12
2 5
1 5
1 17
0 11
1 11
95 11
