23

16 14
5
8 4
14 10
2 13
11 1
11 8
52 14

14 1
11
0 0
11 0
13 0
6 0
2 0
6 0
8 0
4 0
3 0
2 0
9 0
67 20

15 16
23
10 9
9 13
1 15
3 9
12 1
3 10
11 8
14 14
13 6
3 8
6 15
11 7
0 11
14 6
6 7
6 15
14 15
2 2
6 1
14 15
10 14
3 8
14 10
45 8

18 4
6
0 3
7 2
9 0
9 1
14 0
11 1
60 11

5 4
17
4 3
0 1
4 2
3 1
1 2
2 2
3 1
2 1
3 1
2 0
2 1
3 3
3 3
0 0
2 0
4 1
1 3
102 18

8 3
20
1 0
6 0
2 0
5 1
6 1
2 2
5 0
3 2
6 0
6 1
2 1
7 0
3 0
0 2
4 1
2 2
6 0
6 2
0 2
2 1
21 14

3 1
2
0 0
2 0
131 14

15 13
17
4 12
12 12
2 3
1 5
9 6
5 9
14 3
4 5
12 2
0 7
5 9
0 1
4 1
6 10
10 0
11 3
12 0
105 12

14 6
21
0 3
10 2
4 1
13 2
5 0
0 3
13 5
7 5
11 2
0 2
5 1
0 0
13 0
12 2
3 1
4 1
3 1
11 3
0 0
11 4
1 0
1 14

20 5
29
18 1
12 0
16 3
5 0
17 4
15 1
19 1
13 0
7 4
0 4
4 1
15 4
5 4
15 3
8 1
13 2
11 1
7 2
2 0
2 1
2 3
13 4
5 0
18 1
3 2
7 2
17 1
9 1
7 3
23 5

11 7
21
7 3
10 2
7 3
6 4
4 0
8 4
5 3
4 4
6 6
3 4
10 0
8 0
7 4
4 1
5 0
4 3
9 6
5 4
8 6
9 4
2 6
16 5

3 3
30
2 2
2 0
2 1
2 2
1 1
1 1
0 0
2 0
2 1
0 1
2 2
2 2
1 1
2 2
1 0
2 1
2 1
2 2
2 1
0 2
0 1
1 2
0 1
2 1
1 1
1 1
2 1
0 1
2 1
2 1
38 9

17 14
26
16 13
12 4
8 6
10 13
1 7
0 10
2 1
5 9
8 1
0 11
14 12
10 9
14 0
0 11
1 12
3 1
4 3
16 6
11 5
10 6
13 6
12 6
14 12
14 6
0 7
5 1
79 18

16 8
29
7 1
15 0
7 6
11 0
12 3
1 6
5 4
4 4
11 3
2 5
15 0
12 3
8 7
13 0
6 2
13 0
4 6
10 4
5 7
7 5
13 1
3 2
1 3
6 5
3 5
10 6
0 3
13 6
10 3
96 7

1 11
40
0 10
0 7
0 1
0 1
0 3
0 3
0 1
0 1
0 5
0 5
0 2
0 5
0 4
0 0
0 1
0 5
0 2
0 0
0 2
0 10
0 4
0 1
0 1
0 0
0 1
0 8
0 5
0 5
0 8
0 5
0 8
0 9
0 7
0 5
0 5
0 0
0 9
0 3
0 9
0 4
16 15

9 15
36
4 4
5 6
3 13
3 12
2 13
1 11
6 12
6 2
6 2
8 14
0 0
8 10
5 4
7 7
7 8
3 7
2 10
7 10
4 1
3 13
4 2
2 6
5 11
7 11
3 9
5 14
6 9
4 10
8 12
5 6
5 14
3 0
4 9
8 5
6 7
6 10
137 14

3 17
16
2 1
0 1
1 1
0 16
2 15
0 7
2 9
1 15
0 2
0 4
1 14
2 6
2 0
0 6
2 0
1 7
123 6

16 7
11
8 0
8 6
4 5
1 0
3 3
14 5
0 6
3 6
6 1
13 4
2 4
97 10

3 1
6
2 0
0 0
2 0
2 0
2 0
1 0
31 15

12 3
10
2 1
10 2
3 0
3 1
4 2
1 2
4 2
0 0
3 1
8 2
154 8

19 15
12
5 5
0 6
4 8
8 8
18 5
11 13
4 2
1 5
17 13
9 0
14 3
14 10
41 18

20 9
36
12 4
17 0
12 4
14 7
4 3
1 8
3 1
16 3
17 4
2 1
5 8
0 7
7 2
6 2
0 5
7 7
4 3
1 4
6 7
13 1
3 0
1 5
16 7
8 6
9 4
2 0
9 1
19 6
15 3
1 4
9 0
9 5
3 4
10 3
16 5
2 7
154 8

6 12
25
3 7
5 4
0 9
4 10
1 5
3 11
3 5
1 5
1 2
5 2
2 6
4 1
4 11
2 9
1 6
5 3
3 3
1 1
4 0
5 6
4 3
0 0
3 2
2 4
3 0
65 15
