30

3 3
1
0 2
20 9

2 4
6
0 1
1 2
0 2
0 2
0 1
0 1
21 3

3 3
4
2 0
0 2
1 1
1 1
26 9

7 4
2
2 2
5 1
12 3

5 8
6
2 5
4 4
3 0
3 1
3 4
3 6
14 10

8 6
10
5 5
3 2
7 1
3 2
5 1
3 3
7 1
2 0
6 3
1 0
11 8

10 7
14
9 4
9 4
8 0
9 1
7 4
9 5
7 0
5 2
1 4
8 5
2 6
5 1
7 3
6 5
13 5

9 10
9
7 7
8 4
1 3
5 6
1 2
1 6
4 3
7 9
4 3
26 3

9 10
10
7 6
2 0
2 6
3 7
4 0
1 1
2 7
5 0
7 7
4 5
21 10

10 12
12
4 2
2 11
6 11
7 11
3 8
8 8
0 2
7 2
8 11
6 3
4 9
6 3
29 9

14 12
6
5 4
11 5
12 1
8 1
13 6
4 9
22 3

15 14
13
3 12
2 7
2 3
10 8
9 4
0 9
14 13
6 12
3 3
4 0
8 10
6 1
11 8
30 10

16 16
9
2 7
11 5
11 5
3 14
4 5
0 10
11 15
4 14
7 14
12 5

14 15
13
3 10
1 6
11 14
11 6
1 13
11 3
3 3
10 2
0 13
3 7
0 12
4 4
9 13
13 10

17 17
6
6 7
6 6
13 6
14 4
4 12
13 4
27 3

17 16
15
9 14
16 12
6 11
5 7
13 9
8 11
0 5
16 1
16 11
11 13
3 13
9 8
0 11
2 15
10 15
21 4

19 19
19
2 16
10 13
13 5
5 4
17 12
15 0
4 8
0 2
3 13
14 2
0 7
6 7
17 11
10 0
14 7
13 13
11 7
5 18
10 1
30 10

20 21
22
6 18
5 10
12 13
10 13
10 6
6 5
12 6
7 3
10 20
18 17
4 15
12 0
11 20
10 2
11 9
14 20
13 4
13 3
6 20
18 12
1 20
14 8
12 3

22 21
25
21 6
8 20
8 2
7 11
0 12
20 9
13 19
18 14
11 12
21 8
14 7
0 19
2 12
5 16
14 9
21 18
20 1
3 17
2 18
20 15
19 9
9 17
11 9
18 13
9 1
18 6

21 20
1
13 9
12 6

22 24
15
10 9
16 20
4 22
13 22
5 16
6 21
17 21
11 21
3 11
19 15
6 23
3 9
6 18
9 13
15 11
11 9

24 23
6
9 17
14 21
23 11
21 13
13 13
18 5
25 7

26 24
22
2 9
7 8
17 1
15 14
7 3
17 23
20 2
4 16
4 14
14 19
12 13
18 4
16 14
25 8
19 6
16 10
12 18
20 5
6 9
11 17
0 7
7 6
19 7

26 25
24
12 12
2 6
3 11
0 24
5 6
9 21
3 8
6 7
9 14
2 23
23 18
8 8
16 3
22 14
4 6
6 4
4 13
9 6
1 4
17 21
19 11
15 7
3 22
16 14
12 3

27 26
31
15 17
19 6
0 10
26 4
5 0
23 24
0 15
22 20
10 21
1 0
15 4
15 20
20 20
13 7
9 20
26 10
8 15
7 3
2 23
11 0
16 24
3 10
8 15
10 16
22 22
14 18
17 15
16 5
17 15
8 8
18 20
18 3

27 26
31
21 6
7 19
24 24
26 2
16 0
5 12
15 1
7 23
12 17
19 8
8 23
26 12
5 19
6 1
17 22
22 17
7 22
13 10
25 5
5 5
0 22
22 12
9 14
14 25
5 12
10 22
22 21
11 8
6 7
18 2
26 1
17 5

27 27
3
4 18
7 0
5 4
11 8

28 30
22
27 1
6 25
5 6
1 27
14 0
23 16
20 20
26 12
19 6
20 17
24 21
26 22
24 3
9 21
9 5
23 27
5 20
11 0
7 26
19 20
26 25
5 22
24 10

31 32
20
15 29
15 5
19 28
15 11
15 13
17 31
13 23
8 20
1 20
6 22
12 27
29 21
25 9
30 18
22 16
5 19
28 25
0 3
14 0
17 14
26 8

32 33
20
29 0
10 14
13 5
13 20
27 21
21 0
13 25
17 5
25 4
21 8
8 3
15 7
19 6
26 24
14 29
23 12
28 3
19 17
4 3
29 2
29 4
