30

3 8
19
1 0
0 6
1 1
2 5
1 1
2 1
2 1
2 4
2 6
2 7
2 5
1 0
1 1
1 6
2 1
0 2
1 6
1 0
1 7
2 3

16 17
4
14 0
13 6
3 2
9 9
12 7

7 4
3
4 1
5 1
5 3
18 10

7 9
27
0 6
2 5
0 6
6 1
4 1
3 8
1 2
4 1
5 4
1 6
5 3
0 0
2 5
0 6
5 5
6 3
0 5
1 6
6 7
1 3
6 5
3 8
1 3
1 4
5 3
4 0
2 2
19 4

17 9
15
12 7
13 3
9 8
16 7
15 7
14 3
8 8
3 3
4 2
14 7
13 4
14 5
12 2
14 7
0 1
7 1

3 6
13
2 2
1 0
1 2
1 1
2 1
0 3
1 3
0 0
1 2
0 4
2 2
0 1
1 0
9 6

11 5
15
0 0
5 3
0 4
7 3
0 2
9 0
8 2
7 2
10 0
10 4
7 4
7 2
4 3
7 3
6 3
10 10

1 19
3
0 0
0 3
0 10
15 1

1 3
24
0 0
0 2
0 1
0 1
0 1
0 2
0 0
0 0
0 2
0 2
0 2
0 1
0 2
0 2
0 1
0 0
0 2
0 1
0 1
0 0
0 1
0 2
0 2
0 1
8 1

11 19
12
10 4
5 9
5 11
3 12
7 8
4 8
6 3
6 14
2 0
0 9
2 10
6 9
18 3

1 17
8
0 7
0 14
0 5
0 9
0 7
0 14
0 9
0 16
17 3

19 4
17
18 1
10 1
16 2
9 1
16 0
1 3
5 1
14 1
9 1
2 1
14 1
9 1
1 0
4 3
17 2
7 0
6 0
4 8

18 7
19
7 4
12 5
16 2
1 4
7 6
9 3
5 2
17 6
11 6
6 6
0 2
1 3
5 4
2 3
14 4
14 1
5 6
16 0
16 2
6 4

1 17
26
0 13
0 2
0 11
0 15
0 2
0 16
0 9
0 8
0 12
0 3
0 4
0 11
0 2
0 10
0 10
0 10
0 8
0 5
0 5
0 16
0 11
0 2
0 9
0 5
0 9
0 1
20 10

5 15
14
2 11
4 2
2 12
4 14
1 13
2 10
2 11
4 6
3 10
1 1
4 6
2 11
1 5
1 9
17 7

9 9
5
1 7
2 0
7 3
5 3
2 1
4 5

13 12
8
9 0
5 7
4 7
6 2
10 5
10 4
6 11
7 0
14 7

1 13
2
0 9
0 8
17 4

11 5
3
1 2
6 1
8 1
2 5

6 2
28
1 0
3 1
5 1
5 1
0 1
0 1
5 0
4 0
5 1
5 1
1 0
3 1
2 1
2 0
0 1
1 0
5 0
4 1
4 1
1 1
1 0
1 0
3 0
2 0
4 1
0 0
0 0
1 1
3 3

6 5
30
5 4
1 3
5 3
0 3
5 0
3 2
2 2
0 4
4 3
0 3
4 2
1 0
4 2
2 4
2 1
4 4
5 1
4 0
0 1
2 0
1 2
2 1
5 0
2 0
0 1
0 2
3 1
5 3
3 4
1 0
14 10

3 2
27
2 0
2 0
1 0
1 1
1 1
0 0
2 0
1 0
1 1
1 0
0 1
0 1
2 0
2 0
0 0
2 1
0 1
1 0
2 0
2 0
0 1
1 0
0 0
2 1
0 0
2 0
1 1
8 8

1 17
17
0 6
0 15
0 6
0 11
0 11
0 6
0 12
0 9
0 11
0 9
0 16
0 11
0 3
0 9
0 0
0 1
0 14
11 10

20 18
21
17 10
8 12
2 12
3 5
12 17
4 14
19 11
0 2
8 5
0 7
7 13
8 0
11 15
16 10
19 14
18 17
19 1
11 16
7 13
4 16
15 13
10 10

18 15
5
1 4
8 3
16 12
8 2
0 1
17 1

1 11
18
0 9
0 7
0 9
0 0
0 3
0 4
0 4
0 1
0 6
0 6
0 5
0 10
0 2
0 0
0 9
0 5
0 2
0 3
3 6

5 5
17
0 1
2 3
1 0
2 0
1 4
0 1
2 1
1 2
1 1
2 4
2 4
0 1
4 0
2 0
0 1
0 0
0 3
17 9

10 7
23
7 2
2 6
8 3
1 5
9 0
2 1
8 5
2 2
2 0
4 3
9 5
9 3
4 0
5 6
0 6
5 4
0 6
3 6
6 4
9 6
7 1
1 4
0 4
15 4

16 10
28
5 4
1 6
14 7
8 3
1 1
7 6
15 9
12 0
12 5
5 4
10 2
12 8
12 3
10 0
9 9
11 4
7 2
11 6
12 4
11 9
14 8
4 7
3 8
2 4
6 3
2 6
14 1
10 2
2 6

2 20
15
1 4
0 7
0 6
0 16
1 15
1 0
0 15
1 11
0 13
0 3
1 15
0 8
0 5
1 18
0 3
3 7